<?xml version="1.0" encoding="utf-8"?>
<!-- Generator: Adobe Illustrator 23.0.6, SVG Export Plug-In . SVG Version: 6.00 Build 0)  -->
<svg version="1.1" id="Camada_1" xmlns="http://www.w3.org/2000/svg" xmlns:xlink="http://www.w3.org/1999/xlink" x="0px" y="0px"
	 viewBox="0 0 1147.91 581.15" style="enable-background:new 0 0 1147.91 581.15;" xml:space="preserve">
<style type="text/css">
	.st0{fill-rule:evenodd;clip-rule:evenodd;fill:url(#SVGID_1_);}
</style>
<linearGradient id="SVGID_1_" gradientUnits="userSpaceOnUse" x1="-0.2547" y1="290.6159" x2="1147.6587" y2="290.6159">
	<stop  offset="0" style="stop-color:#3FD6FF"/>
	<stop  offset="5.122840e-03" style="stop-color:#3FD4FD"/>
	<stop  offset="0.1195" style="stop-color:#38A9D9"/>
	<stop  offset="0.2391" style="stop-color:#3285BA"/>
	<stop  offset="0.3643" style="stop-color:#2D67A1"/>
	<stop  offset="0.496" style="stop-color:#2A508E"/>
	<stop  offset="0.6372" style="stop-color:#274080"/>
	<stop  offset="0.7944" style="stop-color:#253678"/>
	<stop  offset="1" style="stop-color:#253375"/>
</linearGradient>
<path class="st0" d="M1147.66,581.19c0,0-170.59-191.31-605.96-182.01C129.62,407.99-0.25,581.19-0.25,581.19V0.04h1147.91V581.19z"
	/>
</svg>
