<?xml version="1.0" encoding="utf-8"?>
<!-- Generator: Adobe Illustrator 23.0.6, SVG Export Plug-In . SVG Version: 6.00 Build 0)  -->
<svg version="1.1" id="Camada_1" xmlns="http://www.w3.org/2000/svg" xmlns:xlink="http://www.w3.org/1999/xlink" x="0px" y="0px"
	 viewBox="0 0 500 500" style="enable-background:new 0 0 500 500;" xml:space="preserve">
<style type="text/css">
	.st0{fill:#FFFFFF;}
</style>
<g>
	<path class="st0" d="M384.7,90.3l-29.1-50.8c-0.5-0.5-0.5-0.9-0.9-0.9c0-0.5-0.4-0.5-0.4-0.9c-0.9-0.9-1.4-1.9-2.8-2.3l0,0
		c-0.9-0.5-2.3-1.4-3.2-1.4c-0.5,0-0.9,0-0.9-0.5c-0.9-0.5-1.4-0.5-1.8-0.5c-0.5,0-0.9,0-1.4,0c-0.5,0-0.5,0-0.5,0H159.1h-0.5
		c-0.5,0-0.9,0-1.4,0c-0.5,0-0.9,0.5-1.4,0.5c-0.5,0-0.9,0-0.9,0.5c-0.9,0.5-2.3,0.9-3.2,1.4l0,0c-1.4,0.5-2.3,1.4-2.8,2.3
		c-0.5,0.5-0.5,0.5-0.5,0.9c-0.5,0.4-0.5,0.9-0.9,0.9l-29.1,50.3c-48.9,4.2-87.2,42.9-87.2,90.5v273.2c0,7.4,6,13.4,13.4,13.4h411.2
		c7.4,0,13.4-6,13.4-13.4V180.3C469.6,133.7,432.3,94.9,384.7,90.3z M340.4,68.1l20.8,35.5L327,173.3l-54.9-40.6L340.4,68.1z
		 M309.5,59.8l-58.2,55.4l-58.2-55.4H309.5z M162.3,68.1l68.3,64.6l-54.9,40.6l-34.1-69.7L162.3,68.1z M58.4,180.3
		c0-32.3,25.8-59.1,59.5-62.8l40.2,83.1c1.8,3.7,5.1,6.4,8.8,7.4c0.9,0.5,2.3,0.5,3.2,0.5c2.8,0,5.5-0.9,8.3-2.8l59.1-43.9v278.8
		H58.4V180.3z M442.4,440.1H265.2V161.3l59.1,43.8c2.3,1.8,5.1,2.8,8.3,2.8c0.9,0,2.3,0,3.2-0.5c4.2-0.9,7.4-3.7,8.8-7.4l40.2-82.6
		c32.7,4.6,57.7,30.9,57.7,62.8V440.1z"/>
	<path class="st0" d="M390.7,256.4h-74.3c-3.7,0-6.9,3.2-6.9,6.9v73.9c0,13.8,11.5,25.4,25.4,25.4h37.4c13.8,0,25.4-11.5,25.4-25.4
		v-73.9C397.6,259.2,394.4,256.4,390.7,256.4z M384.3,337.2c0,6.4-5.1,11.5-11.5,11.5h-37.4c-6.5,0-11.5-5.1-11.5-11.5v-67.4h60.5
		V337.2z"/>
</g>
</svg>
