<?xml version="1.0" encoding="utf-8"?>
<!-- Generator: Adobe Illustrator 23.1.0, SVG Export Plug-In . SVG Version: 6.00 Build 0)  -->
<svg version="1.1" id="Camada_1" xmlns="http://www.w3.org/2000/svg" xmlns:xlink="http://www.w3.org/1999/xlink" x="0px" y="0px"
	 viewBox="0 0 512 512" style="enable-background:new 0 0 512 512;" xml:space="preserve">
<style type="text/css">
	.st0{fill:#FFFFFF;}
</style>
<path class="st0" d="M256,255.99c5.52,0,10-4.48,10-10s-4.48-10-10-10s-10,4.48-10,10S250.48,255.99,256,255.99z"/>
<path class="st0" d="M472,175.99h-59.14L321.89,50.84c-8.17-14-26.17-18.99-40.47-11.07c-14.49,8.05-19.7,26.3-11.65,40.8
	c0.23,0.41,0.48,0.8,0.77,1.18l71.35,94.24H170.1l71.35-94.24c0.28-0.38,0.54-0.77,0.77-1.18c8.04-14.46,2.88-32.73-11.66-40.81
	c-14.27-7.9-32.27-2.92-40.45,11.07L99.14,175.99H40c-22.05,0-40,17.95-40,40c0,17.39,11.29,32.54,27.19,37.9
	c1.7,1.31,3.81,2.1,6.12,2.1c0.46,0,0.89,0.03,1.35,0.09c4.3,0.58,7.71,3.84,8.5,8.12l34.02,187.16
	c2.6,14.27,15.01,24.63,29.52,24.63h298.62c14.51,0,26.92-10.36,29.52-24.63l34.02-187.16c0.78-4.28,4.2-7.54,8.52-8.12
	c0.44-0.06,0.87-0.09,1.33-0.09c2.32,0,4.45-0.8,6.15-2.13c15.91-5.39,27.16-20.51,27.16-37.88C512,193.93,494.05,175.99,472,175.99
	z M286.99,70.33c-2.29-4.73-0.51-10.49,4.14-13.07c4.84-2.68,10.94-0.95,13.61,3.86c0.2,0.36,0.42,0.7,0.66,1.03l82.75,113.84
	h-21.16L286.99,70.33z M206.61,62.15c0.24-0.33,0.45-0.67,0.65-1.02c2.68-4.81,8.78-6.55,13.6-3.88c4.66,2.59,6.44,8.34,4.15,13.08
	l-79.99,105.66h-21.16L206.61,62.15z M472,235.99H296c-5.52,0-10,4.48-10,10s4.48,9.9,10,9.9h154.4c-0.52,1.49-0.94,3.04-1.23,4.63
	l-34.02,187.26c-0.86,4.76-5,8.21-9.84,8.21H106.69c-4.84,0-8.98-3.45-9.84-8.21L62.83,260.62c-0.29-1.59-0.7-3.14-1.23-4.63H216
	c5.52,0,10-4.48,10-10s-4.48-10-10-10H40c-11.12,0-20-9.06-20-20c0-11.03,8.97-20,20-20h432c11.03,0,20,8.97,20,20
	C492,227.09,482.91,235.99,472,235.99z"/>
<path class="st0" d="M256,285.99c-16.54,0-30,13.46-30,30v80c0,16.54,13.46,30,30,30s30-13.46,30-30v-80
	C286,299.41,272.57,285.99,256,285.99z M266,395.99c0,5.52-4.48,10-10,10s-10-4.48-10-10v-80c0-5.52,4.48-10,10-10
	c5.52,0,10,4.48,10,10V395.99z"/>
<path class="st0" d="M356,425.99c16.54,0,30-13.46,30-30v-80c0-16.57-13.43-30-30-30c-16.54,0-30,13.46-30,30v80
	C326,412.53,339.46,425.99,356,425.99z M346,315.99c0-5.52,4.48-10,10-10c5.52,0,10,4.48,10,10v80c0,5.52-4.48,10-10,10
	s-10-4.48-10-10V315.99z"/>
<path class="st0" d="M156,285.99c-16.54,0-30,13.46-30,30v80c0,16.54,13.46,30,30,30s30-13.46,30-30v-80
	C186,299.41,172.57,285.99,156,285.99z M166,395.99c0,5.52-4.48,10-10,10s-10-4.48-10-10v-80c0-5.52,4.48-10,10-10
	c5.52,0,10,4.48,10,10V395.99z"/>
</svg>
